{
  "hash": "091341db6308878bc9569dbdcefdaf00",
  "result": {
    "engine": "knitr",
    "markdown": "# Introduction\n\nShiny is a framework for building interactive web applications directly from R. It's a tool that blends the simplicity of R with the power of web development, enabling users to create web apps without needing to learn HTML, CSS, or JavaScript. This chapter will guide you through the fundamental concepts of Shiny, and by the end, you'll have built your first Shiny app.\n\n::: callout-note\n## What is Shiny ?\n\nShiny is more than just a package; it's an ecosystem that allows you to turn your R code into a fully-fledged interactive web application. Shiny apps can range from simple data visualizations to complex, fully interactive data dashboards. The key strength of Shiny lies in its ability to link the user interface (UI) and the server-side logic through reactive programming, ensuring that any change in input automatically updates the corresponding outputs.\n:::\n\n## Structure of a Shiny App\n\nAt its core, a Shiny app is composed of two main parts:\n\n1.  **UI (User Interface):** This is where the layout and appearance of the app are defined. It consists of the various input and output elements that users will interact with.\n\n2.  **Server:** This is where the logic of the app is processed. The server function takes the inputs from the UI, processes them, and returns the outputs that are displayed in the UI.\n\nThese two components are brought together in the `shinyApp()` function, which creates a complete Shiny application.\n\n### The User Interface (UI)\n\nThe UI defines how your app looks and feels. In Shiny, you build the UI using functions that generate HTML elements. The most common function for creating a UI layout is `fluidPage()`, which automatically adjusts to the size of the user’s screen.\n\nFor example, a basic UI layout might look like this:\n\n\n\n\n::: {.cell}\n\n```{.r .cell-code}\nui <- fluidPage(\n  titlePanel(\"My First Shiny App\"),\n  sidebarLayout(\n    sidebarPanel(\n      sliderInput(\"bins\", \"Number of bins:\", min = 1, max = 50, value = 30)\n    ),\n    mainPanel(\n      plotOutput(\"distPlot\")\n    )\n  )\n)\n```\n:::\n\n\n\n\nIn this example:\n\n-   `titlePanel()` adds a title to the app.\n\n-   `sidebarLayout()` creates a two-column layout with a sidebar on the left and a main panel on the right.\n\n-   `sliderInput()` creates a slider input control where users can select the number of bins for a histogram.\n\n-   `plotOutput()` reserves a space in the UI for a plot that will be generated in the server.\n\n### The Server\n\nThe server is the brain of your Shiny app. It contains the logic that takes inputs from the UI, processes them, and produces outputs that are sent back to the UI.\n\nHere’s a simple server function:\n\n\n\n\n::: {.cell}\n\n```{.r .cell-code}\nserver <- function(input, output) {\n  output$distPlot <- renderPlot({\n    x <- faithful[, 2]\n    bins <- seq(min(x), max(x), length.out = input$bins + 1)\n    hist(x, breaks = bins, col = 'darkgray', border = 'white')\n  })\n}\n```\n:::\n\n\n\n\nIn this example:\n\n-   The `renderPlot()` function generates a plot based on the number of bins selected by the user in the slider input. The plot is then displayed in the UI.\n\n-   The `input` object is a list of all the inputs from the UI, accessed via their IDs (e.g., `input$bins`).\n\n-   The `output` object is a list where each element is a placeholder for an output, identified by the ID specified in the UI (e.g., `output$distPlot`).\n\n### Bringing It all Together\n\nBefore creating the app, you need to load the Shiny library. The shinyApp() function combines the UI and server components to create a complete app:\n\n\n\n\n::: {.cell}\n\n```{.r .cell-code}\nlibrary(shiny) \n\nshinyApp(ui = ui, server = server)\n```\n:::\n\n\n\n\nNow here's the complete code for this application\n\n```{shinylive-r}\n#| standalone: true\n#| components: [editor, viewer]\n#| layout: vertical\n#| viewerHeight: 600\nlibrary(shiny)\nui <- fluidPage(\n  titlePanel(\"My First Shiny App\"),\n  sidebarLayout(\n    sidebarPanel(\n      sliderInput(\"bins\", \"Number of bins:\", min = 1, max = 50, value = 30)\n    ),\n    mainPanel(\n      plotOutput(\"distPlot\")\n    )\n  )\n)\n\nserver <- function(input, output) {\n  output$distPlot <- renderPlot({\n    x <- faithful[, 2]  # Old Faithful Geyser data\n    bins <- seq(min(x), max(x), length.out = input$bins + 1)\n    hist(x, breaks = bins, col = 'darkgray', border = 'white')\n  })\n}\n\nshinyApp(ui = ui, server = server)\n```\n\n### Example : Interactive Mapping with Leaflet\n\nIn addition to standard input and output functions, Shiny supports interactive mapping through the Leaflet package. This allows users to visualize geographical data dynamically. For example, we can use the quakes dataset, which contains information about earthquakes, to create an interactive map.\n\nFirst, ensure you have the Leaflet library loaded:\n\n\n\n\n::: {.cell}\n\n```{.r .cell-code}\nlibrary(leaflet)\n```\n:::\n\n\n\n\nHere’s a simple Shiny app that creates an interactive map of earthquake locations:\n\n```{shinylive-r}\n#| standalone: true\n#| components: [editor, viewer]\n#| layout: vertical\n#| viewerHeight: 400\nlibrary(shiny)  # Load the Shiny library\nlibrary(leaflet)  # Load the Leaflet library for mapping\n\nui <- bootstrapPage(\n  tags$style(HTML(\"html, body {height:100%; margin:0;}\")),\n  leafletOutput(\"map\", width = \"100%\", height = \"100%\")\n)\n\nserver <- function(input, output) {\n  output$map <- renderLeaflet({\n    leaflet(data = quakes) %>%\n      addTiles() %>%  # Add default OpenStreetMap tiles\n      addCircles(\n        lng = ~long, \n        lat = ~lat, \n        weight = 1,\n        radius = ~mag * 20000,  # Scale circle size by magnitude\n        popup = ~paste(\"Magnitude:\", mag)\n      )\n  })\n}\n\nshinyApp(ui = ui, server = server)\n```\n\n#### Explanation of Changes in the UI\n\n1.  Use of `bootstrapPage()`:\n\n    -   We utilize `bootstrapPage()` instead of `fluidPage()` to allow for a more flexible layout that can accommodate the full-screen map. This function enables us to create a layout that maximizes the visual impact of the map.\n\n2.  **Full-Height Layout:**\n\n    -   The line `tags$style(HTML(\"html, body {height:100%; margin:0;}\"))` is included to ensure that the HTML and body elements take up the full height of the viewport. This custom CSS resets the default margin and sets the height to 100%, allowing the Leaflet map to render without any unwanted white space around it. This results in a more immersive user experience.\n\n3.  **Leaflet Output Configuration:**\n\n    -   The `leafletOutput(\"map\", width = \"100%\", height = \"100%\")` line specifies that the map should occupy the entire width and height of its container. This is crucial for mapping applications, where a larger map provides better visualization and interaction with geographical data.\n\nBy implementing these changes, we create an interactive map that fills the entire screen, making it easier for users to explore the earthquake data visually. The map displays circles representing the magnitude of each earthquake, allowing users to click on them to view more information.\n",
    "supporting": [],
    "filters": [
      "rmarkdown/pagebreak.lua"
    ],
    "includes": {},
    "engineDependencies": {},
    "preserve": {},
    "postProcess": true
  }
}