{
  "hash": "a58f3c6266ec005c19da9b77c0bf8ec8",
  "result": {
    "engine": "knitr",
    "markdown": "# Maps\n\n\n\n\n\n::: {.cell}\n\n```{.r .cell-code}\nlibrary(leaflet)\n```\n:::\n\n::: {.cell}\n\n```{.r .cell-code}\nleaflet() |>\n  addTiles()\n```\n\n::: {.cell-output-display}\n\n```{=html}\n<div class=\"leaflet html-widget html-fill-item\" id=\"htmlwidget-74a0f27fb78ecea7e61e\" style=\"width:100%;height:621px;\"></div>\n<script type=\"application/json\" data-for=\"htmlwidget-74a0f27fb78ecea7e61e\">{\"x\":{\"options\":{\"crs\":{\"crsClass\":\"L.CRS.EPSG3857\",\"code\":null,\"proj4def\":null,\"projectedBounds\":null,\"options\":{}}},\"calls\":[{\"method\":\"addTiles\",\"args\":[\"https://{s}.tile.openstreetmap.org/{z}/{x}/{y}.png\",null,null,{\"minZoom\":0,\"maxZoom\":18,\"tileSize\":256,\"subdomains\":\"abc\",\"errorTileUrl\":\"\",\"tms\":false,\"noWrap\":false,\"zoomOffset\":0,\"zoomReverse\":false,\"opacity\":1,\"zIndex\":1,\"detectRetina\":false,\"attribution\":\"&copy; <a href=\\\"https://openstreetmap.org/copyright/\\\">OpenStreetMap<\\/a>,  <a href=\\\"https://opendatacommons.org/licenses/odbl/\\\">ODbL<\\/a>\"}]}]},\"evals\":[],\"jsHooks\":[]}</script>\n```\n\n:::\n:::\n\n\n\n\n\n```{shinylive-r}\n#| standalone: true\n#| components: [editor, viewer]\n#| layout: vertical\n#| viewerHeight: 800\nlibrary(shiny)\nlibrary(leaflet)\nui <- bootstrapPage(\n  tags$style(HTML(\"html, body {height:100%; margin:0;}\")),\n  leafletOutput(\"map\", width = \"100%\", height = \"100%\")\n)\nserver <- function(input, output) {\n  output$map <- renderLeaflet({\n    leaflet() |>\n      addTiles()\n  })\n}\nshinyApp(ui = ui, server = server)\n```\n",
    "supporting": [],
    "filters": [
      "rmarkdown/pagebreak.lua"
    ],
    "includes": {
      "include-in-header": [
        "<link href=\"site_libs/htmltools-fill-0.5.8.1/fill.css\" rel=\"stylesheet\" />\n<script src=\"site_libs/htmlwidgets-1.6.4/htmlwidgets.js\"></script>\n<script src=\"site_libs/jquery-3.6.0/jquery-3.6.0.min.js\"></script>\n<link href=\"site_libs/leaflet-1.3.1/leaflet.css\" rel=\"stylesheet\" />\n<script src=\"site_libs/leaflet-1.3.1/leaflet.js\"></script>\n<link href=\"site_libs/leafletfix-1.0.0/leafletfix.css\" rel=\"stylesheet\" />\n<script src=\"site_libs/proj4-2.6.2/proj4.min.js\"></script>\n<script src=\"site_libs/Proj4Leaflet-1.0.1/proj4leaflet.js\"></script>\n<link href=\"site_libs/rstudio_leaflet-1.3.1/rstudio_leaflet.css\" rel=\"stylesheet\" />\n<script src=\"site_libs/leaflet-binding-2.2.2/leaflet.js\"></script>\n"
      ]
    },
    "engineDependencies": {},
    "preserve": {},
    "postProcess": true
  }
}