{
  "hash": "d6766c3a5df461f8d7312cd9d3dea0e9",
  "result": {
    "engine": "knitr",
    "markdown": "# Enhancing User Interfaces with `ShinyWidgets`\n\n## Introduction\n\nIn the world of Shiny application development, the user interface (UI) plays a critical role in determining the success and usability of your app. While Shiny provides a solid set of default UI components, developers often require more sophisticated and customizable elements to create truly engaging applications. This is where the `shinyWidgets` package by dreamRs comes into play.\n\n`shinyWidgets` is a powerful extension to the Shiny framework, offering a broad range of customizable UI components such as sliders, buttons, dropdowns, and more. These widgets not only enhance the visual appeal of your Shiny applications but also improve user interaction by providing a more intuitive and responsive interface.\n\nIn this chapter, we'll explore the `shinyWidgets` package, examining its key features, demonstrating its use through practical examples, and discussing how it can be leveraged to create dynamic and polished Shiny applications.\n\n## Why Use `ShinyWidgets`?\n\nThe `shinyWidgets` package is designed to address some of the limitations of the default Shiny UI components by offering enhanced functionality, customization options, and a modern look. Here’s why you should consider using `shinyWidgets` in your Shiny applications:\n\n-   **Customization:** Tailor the appearance and behavior of widgets to fit your application's design and user experience goals.\n\n-   **Advanced Functionality:** Access to a variety of advanced UI components that go beyond what’s available in base Shiny.\n\n-   **Easy Integration:** Works seamlessly with Shiny, allowing you to enhance your applications without extensive modifications.\n\n-   **User Engagement:** Create more interactive and appealing interfaces that keep users engaged.\n\n::: callout-tip\n## Reminder\n\n`shinyWidgets` is ideal for applications where user experience and interface customization are priorities. It allows you to create interfaces that are not only functional but also aesthetically pleasing and highly interactive.\n:::\n\n## Key Features\n\n`shinyWidgets` offers a rich set of components that can be used to significantly enhance your Shiny application's UI. Here are some of the key features:\n\n-   **`pickerInput()`**: A versatile dropdown picker that supports multiple selections, search functionality, and customization of appearance.\n\n-   **`sliderTextInput()`**: A slider that allows the use of text labels instead of numeric values, offering more flexibility in user input.\n\n-   **`prettyCheckbox()`**: Stylish checkboxes that provide more options for customization compared to Shiny’s default checkboxes.\n\n-   **`actionBttn()`**: A set of highly customizable action buttons with various styles, colors, and animations.\n\n-   **`progressBar()`**: A customizable progress bar that visually represents the progress of a task within the application.\n\n-   **`airDatepickerInput()`**: An enhanced date picker with a modern design and additional features like range selection.\n\n-   **`searchInput()`**: An input field with a search button, enhancing the search functionality within your app.\n\n## Installing and Loading `shinyWidgets`\n\nTo start using `shinyWidgets`, you need to install it from CRAN and load it into your R session.\n\n\n\n\n::: {.cell}\n\n```{.r .cell-code}\n# Install shinyWidgets if you haven't already\ninstall.packages(\"shinyWidgets\")\n\n# Load the package along with Shiny\nlibrary(shiny)\nlibrary(shinyWidgets)\n```\n:::\n\n\n\n\n::: callout-tip\n## Reminder\n\nEnsure that both `shiny` and `shinyWidgets` are loaded in your R session to use the extended set of UI components provided by the package.\n:::\n\n## Practical Examples\n\n### **Example 1: Advanced Dropdown Menus with `pickerInput()`**\n\nThe `pickerInput()` widget allows for the creation of advanced dropdown menus that can handle multiple selections, incorporate search functionality, and offer extensive customization options.\n\n\n\n\n::: {.cell}\n\n```{.r .cell-code}\n# Example of pickerInput in a Shiny app\nui <- fluidPage(\n  titlePanel(\"shinyWidgets: pickerInput Example\"),\n  \n  sidebarLayout(\n    sidebarPanel(\n      pickerInput(\n        inputId = \"country_picker\",\n        label = \"Select countries:\",\n        choices = c(\"Thailand\", \"Cambodia\", \"Laos\", \"Myanmar\"),\n        multiple = TRUE,\n        options = list(\n          `actions-box` = TRUE,  # Show select all/deselect all buttons\n          size = 10\n        )\n      )\n    ),\n    mainPanel(\n      textOutput(\"selected_countries\")\n    )\n  )\n)\n\nserver <- function(input, output, session) {\n  output$selected_countries <- renderText({\n    paste(\"Selected countries: \", paste(input$country_picker, collapse = \", \"))\n  })\n}\n\nshinyApp(ui, server)\n```\n:::\n\n\n\n\n**Key Features:**\n\n-   **Multiple Selection:** Allows users to select multiple items from a dropdown list.\n\n-   **Searchable:** Provides a search box within the dropdown for easier item selection.\n\n-   **Customizable:** Offers options for styling, including buttons to select or deselect all items.\n\n### Example 2: Custom Text Sliders with `sliderTextInput()`\n\n`sliderTextInput()` is particularly useful when you need a slider that handles textual labels, such as a sequence of dates, instead of numeric values.\n\n\n\n\n::: {.cell}\n\n```{.r .cell-code}\nlibrary(shiny)\nlibrary(shinyWidgets)\n\nui <- fluidPage(\n  titlePanel(\"shinyWidgets: sliderTextInput with Dates\"),\n  \n  sliderTextInput(\n    inputId = \"date_slider\",\n    label = \"Select a date:\",\n    choices = seq.Date(from = as.Date(\"2023-01-01\"), to = as.Date(\"2023-12-31\"), by = \"month\"),\n    selected = \"2023-06-01\"\n  ),\n  \n  textOutput(\"selected_date\")\n)\n\nserver <- function(input, output, session) {\n  output$selected_date <- renderText({\n    paste(\"You selected: \", input$date_slider)\n  })\n}\n\nshinyApp(ui, server)\n```\n:::\n\n\n\n\n**Key Features:**\n\n-   **Date Labels:** Uses dates as the labels for the slider, making it suitable for time-based data filtering.\n\n-   **Custom Selections:** Allows users to slide through and select specific dates easily.\n\n::: callout-tip\n## Reminder\n\nWhen working with time-series data, `sliderTextInput()` is an excellent choice for enabling intuitive date-based filtering.\n:::\n\n### Example 3: Indicating Progress with `progressBar()`\n\nUse `progressBar()` to show the progress of tasks within your Shiny app, improving user feedback during long-running operations.\n\n\n\n\n::: {.cell}\n\n```{.r .cell-code}\nui <- fluidPage(\n  titlePanel(\"shinyWidgets: progressBar Example\"),\n  \n  actionButton(\"start\", \"Start Task\"),\n  progressBar(id = \"progress\", value = 0, total = 100, display_pct = TRUE)\n)\n\nserver <- function(input, output, session) {\n  observeEvent(input$start, {\n    for (i in 1:100) {\n      Sys.sleep(0.05)  # Simulate a task\n      updateProgressBar(session, id = \"progress\", value = i)\n    }\n  })\n}\n\nshinyApp(ui, server)\n```\n:::\n\n\n\n\n**Key Features:**\n\n-   **Visual Feedback:** Progress bars provide users with immediate feedback on the status of tasks.\n\n-   **Customization:** Adjust the total value, colors, and display options for the progress bar.\n\n## Advanced Usage: Combining Multiple `shinyWidgets` Components\n\nTo fully leverage `shinyWidgets`, consider combining multiple widgets to build complex and interactive interfaces. Here's an example:\n\n\n\n\n::: {.cell}\n\n```{.r .cell-code}\nlibrary(shiny)\nlibrary(shinyWidgets)\nlibrary(dplyr)\n\n# Simulated disease data\ndisease_data <- data.frame(\n  Year = rep(2000:2023, times = 3),  # Years from 2000 to 2023, repeated for each disease\n  Disease = rep(c(\"Dengue\", \"Malaria\", \"Chikungunya\"), each = 24),  # Three diseases, each repeated for 24 years\n  Cases = c(\n    sample(100:1000, 24),  # Random Dengue cases between 100 and 1000\n    sample(50:500, 24),    # Random Malaria cases between 50 and 500\n    sample(5:200, 24)      # Random Chikungunya cases between 5 and 200\n  )\n)\n\n# UI\nui <- fluidPage(\n  titlePanel(\"Disease Case Trend Analysis\"),  # Title of the application\n  \n  sidebarLayout(\n    sidebarPanel(\n      # Picker input for selecting diseases\n      pickerInput(\n        inputId = \"disease_picker\",\n        label = \"Select diseases:\",\n        choices = unique(disease_data$Disease),  # Choices are unique disease names from the dataset\n        multiple = TRUE,  # Allow multiple selections\n        selected = \"Dengue\"  # Default selection\n      ),\n      \n      # Slider input for selecting year range\n      sliderTextInput(\n        inputId = \"year_slider\",\n        label = \"Select year range:\",\n        choices = 2000:2023,  # Range of years available\n        selected = c(2010, 2020)  # Default year range\n      ),\n      \n      # Checkbox input to show or hide the trend line\n      prettyCheckbox(\n        inputId = \"show_trend\",\n        label = \"Show trend line\",\n        value = TRUE  # Default value is TRUE, meaning trend line will be shown\n      )\n    ),\n    \n    mainPanel(\n      # Output for the plot\n      plotOutput(\"disease_plot\")\n    )\n  )\n)\n\n# Server\nserver <- function(input, output, session) {\n  \n  # Reactive expression to filter and prepare the data based on inputs\n  filtered_data <- reactive({\n    req(input$disease_picker)  # Ensure that disease_picker input is available\n    disease_data %>%\n      filter(Disease %in% input$disease_picker,  # Filter data based on selected diseases\n             Year >= input$year_slider[1],  # Filter data based on the selected start year\n             Year <= input$year_slider[2])  # Filter data based on the selected end year\n  })\n  \n  # Render plot output\n  output$disease_plot <- renderPlot({\n    data <- filtered_data()  # Get the filtered data\n    \n    # Define colors for each disease\n    disease_colors <- c(\n      \"Dengue\" = \"red\",\n      \"Malaria\" = \"blue\",\n      \"Chikungunya\" = \"green\"\n    )\n    \n    # Initialize the plot\n    plot(NULL, xlim = range(data$Year), ylim = range(data$Cases),\n         xlab = \"Year\", ylab = \"Number of Cases\", \n         main = \"Disease Cases Over Time\")\n    \n    # Plot lines for each disease\n    for (disease in unique(data$Disease)) {\n      disease_data <- subset(data, Disease == disease)  # Subset data for the current disease\n      lines(disease_data$Year, disease_data$Cases, type = \"b\", pch = 19, col = disease_colors[disease])\n    }\n    \n    # Add legend\n    legend(\"topright\", legend = names(disease_colors), col = disease_colors, pch = 19, lty = 1)\n    \n    # Add trend line if selected\n    if (input$show_trend) {\n      for (disease in unique(data$Disease)) {\n        disease_data <- subset(data, Disease == disease)  # Subset data for the current disease\n        trend <- loess(Cases ~ Year, data = disease_data)  # Fit a LOESS trend line\n        lines(disease_data$Year, predict(trend), lty = 2, col = disease_colors[disease])  # Plot the trend line\n      }\n    }\n  })\n}\n\nshinyApp(ui, server)\n```\n:::\n\n\n\n\n### Explanation of Key Components\n\n-   **User Interface (UI):**\n\n    -   **`pickerInput()`:** Allows users to select multiple diseases.\n\n    -   **`sliderTextInput()`:** Lets users choose a range of years.\n\n    -   **`prettyCheckbox()`:** Provides an option to show or hide trend lines.\n\n-   **Server Logic:**\n\n    -   **`filtered_data`:** A reactive expression that filters data based on user selections.\n\n    -   **`renderPlot()`:** Updates the plot based on the filtered data.\n\n        -   **Plot Initialization:** Sets up an empty plot with specified axis limits and labels.\n\n        -   **Plotting Lines:** Uses `lines()` to add data points and lines for each disease.\n\n        -   **Trend Lines:** Adds trend lines using the `loess()` function if the checkbox is selected.\n\n::: callout-tip\n## Reminder\n\nDirectly linking inputs to reactive expressions allows the plot to update in real time, providing an immediate and intuitive user experience without additional button clicks.\n:::\n",
    "supporting": [],
    "filters": [
      "rmarkdown/pagebreak.lua"
    ],
    "includes": {},
    "engineDependencies": {},
    "preserve": {},
    "postProcess": true
  }
}