PROVINCE,LATITUDE,LONGITUDE
SONGKHLA,7.1897,100.5957
CHANTHABURI,12.6114,102.1034
KRABI,8.0863,98.9063
NAKHON SAWAN,15.7042,100.1262
CHUMPHON,10.2725,99.1901
NONG BUA LAMPHU,17.2487,102.2850
PHATTHALUNG,7.6170,100.0131
BUNGKAN,18.3281,104.6066
SURAT THANI,9.1400,99.3236
KAMPAENG PHET,16.4807,99.5190
NAKHON RATCHASIMA,15.0024,102.0974
MAE HONG SON,19.3035,97.9636
PHRA NAKHON SI AYUDHYA,14.3562,100.5655
RATCHABURI,13.5407,99.8161
NAKHON SI THAMMARAT,8.4394,99.9613
BURIRAM,14.9934,102.1065
SAKON NAKHON,17.1565,104.1181
MAHA SARAKHAM,15.4167,100.4180
YALA,6.5922,101.2844
NAKHON PHANOM,17.4054,104.7308
TRAD,12.2394,102.5158
SAMUT SONGKHAM,13.4111,99.9667
SAMUT SAKHON,13.5471,100.2914
PRACHUAP KHILIKHAN,11.8067,99.7775
PHANGNGA,8.4310,98.4670
KHON KAEN,16.4304,102.8250
NAKHON NAYOK,14.2067,101.1875
PHRAE,18.1554,100.1556
RAYONG,12.6740,101.2706
SATUN,6.6285,100.0840
NAKHON PATHOM,13.8198,100.0734
LAMPANG,18.2931,99.5097
SINGBURI,14.9348,100.4111
LAMPHUN,18.5822,99.0592
NARATHIWAT,6.4280,101.8236
PHITSANULOK,16.8301,100.2620
NAN,18.7700,100.7737
SARABURI,14.5328,100.9216
UBON RATCHATHANI,15.2484,104.8585
CHACHOENGSAO,13.6811,101.0675
SURIN,14.8803,103.6796
PHAYAO,19.1624,99.8435
SI SAKET,15.1148,104.3327
LOPBURI,14.8082,100.6475
RANONG,8.6313,98.6287
SUPHANBURI,14.4702,100.1233
MUKDAHAN,16.5456,104.7333
ROI ET,16.0711,103.6468
KALASIN,16.4328,103.5090
UTTARADIT,17.6397,100.1182
CHAIYAPHUM,15.8005,102.0277
PATTANI,6.8286,101.2916
PHACHINBURI,14.0987,101.3782
TRANG,7.5567,99.6147
CHIANG MAI,18.7874,98.9934
CHAINAT,15.1867,100.1316
NONTHABURI,13.8600,100.5167
PHUKET,7.8804,98.3923
CHONBURI,13.3644,100.9840
PHETCHABUN,16.4154,101.1554
LOEI,17.4992,101.7342
PHETCHABURI,12.7460,99.9511
SUKHOTHAI,17.0200,99.8200
NONG KHAI,17.8833,102.7667
TAK,16.8905,98.8981
CHIANG RAI,19.9163,99.8293
SAMUT PRAKARN,13.6281,100.5970
UTHAI THANI,15.3967,99.2728
YASOTHON,15.7814,105.3385
BANGKOK,13.7563,100.5018
PATHUM THANI,14.0377,100.5328
SA KAEO,13.8121,102.0931
ANG THONG,14.5978,100.4534
PHICHIT,16.4524,100.3517
UDON THANI,17.4130,102.7790
AMNAT CHAROEN,15.9932,104.6317
KANCHANABURI,14.0226,99.5234